<?xml version="1.0" encoding="UTF-8" standalone="no"?>
<svg width="199px" height="42px" viewBox="0 0 199 42" version="1.1" xmlns="http://www.w3.org/2000/svg" xmlns:xlink="http://www.w3.org/1999/xlink">
    <!-- Generator: Sketch 3.8.3 (29802) - http://www.bohemiancoding.com/sketch -->
    <title>Evergreen_Health_1c_white</title>
    <desc>Created with Sketch.</desc>
    <defs></defs>
    <g id="Page-1" stroke="none" stroke-width="1" fill="none" fill-rule="evenodd">
        <g id="Desktop-HD-Copy-4" transform="translate(-27.000000, -37.000000)" fill="#FFFFFF">
            <g id="Evergreen_Health_1c_white" transform="translate(27.000000, 37.000000)">
                <path d="M116.960763,41.9261538 L119.592138,41.9261538 L119.592138,29.5744615 L116.960763,29.5744615 L116.960763,34.3564615 L112.015041,34.3564615 L112.015041,29.5744615 L109.365368,29.5744615 L109.365368,41.9261538 L112.015041,41.9261538 L112.015041,36.5441538 L116.960763,36.5441538 L116.960763,41.9261538 L116.960763,41.9261538 Z M134.322713,41.9261538 L134.322713,39.6853846 L128.176129,39.6853846 L128.176129,36.8441538 L133.121851,36.8441538 L133.121851,34.6564615 L128.176129,34.6564615 L128.176129,31.8152308 L134.217037,31.8152308 L134.217037,29.5744615 L125.526913,29.5744615 L125.526913,41.9261538 L134.322713,41.9261538 L134.322713,41.9261538 Z M147.870267,41.9261538 L150.731749,41.9261538 L146.086129,29.5744615 L143.189421,29.5744615 L138.526416,41.9261538 L141.40574,41.9261538 L142.200368,39.4735385 L147.075182,39.4735385 L147.870267,41.9261538 L147.870267,41.9261538 Z M144.620391,31.9564615 L146.386687,37.3910769 L142.871478,37.3910769 L144.620391,31.9564615 L144.620391,31.9564615 Z M163.996586,41.9261538 L163.996586,39.6853846 L158.150103,39.6853846 L158.150103,29.5744615 L155.50043,29.5744615 L155.50043,41.9261538 L163.996586,41.9261538 L163.996586,41.9261538 Z M176.166237,31.8152308 L176.166237,29.5744615 L166.222184,29.5744615 L166.222184,31.8152308 L169.895678,31.8152308 L169.895678,41.9261538 L172.545352,41.9261538 L172.545352,31.8152308 L176.166237,31.8152308 L176.166237,31.8152308 Z M188.689055,41.9261538 L191.320887,41.9261538 L191.320887,29.5744615 L188.689055,29.5744615 L188.689055,34.3564615 L183.743333,34.3564615 L183.743333,29.5744615 L181.094117,29.5744615 L181.094117,41.9261538 L183.743333,41.9261538 L183.743333,36.5441538 L188.689055,36.5441538 L188.689055,41.9261538 L188.689055,41.9261538 Z" id="Fill-1"></path>
                <path d="M21.5926437,13.3066154 L4.64058851,13.3066154 C5.13602989,17.2486154 7.33783908,20.2056923 13.2817632,20.2056923 C15.2081747,20.2056923 17.519777,19.6578462 19.6666897,18.9461538 L20.4370713,22.6149231 C17.7951747,23.3815385 15.0430276,23.9293846 12.8961149,23.9293846 C4.58569195,23.9293846 0.402574713,18.7269231 0.402574713,12.1015385 C0.402574713,5.80430769 4.47544138,0.0553846154 11.6307494,0.0553846154 C18.1803655,0.0553846154 21.7577908,4.87384615 21.7577908,11.1161538 C21.7577908,11.8827692 21.7577908,12.4850769 21.5926437,13.3066154 L21.5926437,13.3066154 Z M17.7402782,10.0209231 C17.4648805,6.46153846 15.4282184,3.66923077 11.3553517,3.66923077 C7.61277931,3.66923077 5.30117701,6.07846154 4.80527816,10.0209231 L17.7402782,10.0209231 L17.7402782,10.0209231 Z" id="Fill-2"></path>
                <polyline id="Fill-3" points="33.5930299 24.0932308 32.8775448 24.0932308 21.5944736 0.493384615 26.4377218 0.493384615 33.4278828 16.5918462 40.4180437 0.493384615 45.0961448 0.493384615 33.5930299 24.0932308"></polyline>
                <path d="M65.406954,13.3066154 L48.4548989,13.3066154 C48.9498828,17.2486154 51.1521494,20.2056923 57.0960736,20.2056923 C59.0224851,20.2056923 61.3340874,19.6578462 63.481,18.9461538 L64.2513816,22.6149231 C61.6094851,23.3815385 58.8573379,23.9293846 56.7104253,23.9293846 C48.4000023,23.9293846 44.2168851,18.7269231 44.2168851,12.1015385 C44.2168851,5.80430769 48.2897517,0.0553846154 55.4450598,0.0553846154 C61.9942184,0.0553846154 65.5721011,4.87384615 65.5721011,11.1161538 C65.5721011,11.8827692 65.5721011,12.4850769 65.406954,13.3066154 L65.406954,13.3066154 Z M61.554131,10.0209231 C61.2791908,6.46153846 59.2425287,3.66923077 55.1696621,3.66923077 C51.4266322,3.66923077 49.1154874,6.07846154 48.6195885,10.0209231 L61.554131,10.0209231 L61.554131,10.0209231 Z" id="Fill-4"></path>
                <path d="M73.7192069,7.776 L73.7192069,23.4909231 L69.3709425,23.4909231 L69.3709425,0.493384615 L73.4991632,0.493384615 L73.4991632,4.32646154 C75.7005149,1.47876923 78.7280598,0.0553846154 81.7546897,0.0553846154 L81.7546897,4.27153846 C78.397308,4.27153846 75.3153241,5.47615385 73.7192069,7.776" id="Fill-5"></path>
                <path d="M95.5698644,35.7563077 C93.2033655,35.7563077 90.616823,35.3183077 87.8102368,34.4967692 L88.4154713,30.5547692 C90.8373241,31.3758462 93.148469,31.7593846 94.9101908,31.7593846 C99.1486621,31.7593846 101.01972,29.9524615 101.01972,26.01 L101.01972,21.5196923 C99.2584552,22.9984615 96.7812483,23.9293846 93.864869,23.9293846 C87.2045448,23.9293846 82.5808828,19.1104615 82.5808828,12.2113846 C82.5808828,5.47615385 87.8646759,0.0553846154 93.9746621,0.0553846154 C96.9459379,0.0553846154 99.6441034,1.09569231 101.239306,2.62892308 L101.239306,0.493384615 L105.366611,0.493384615 L105.366611,25.6269231 C105.366611,32.6903077 101.515161,35.7563077 95.5698644,35.7563077 L95.5698644,35.7563077 Z M101.01972,6.79015385 C99.6441034,5.14753846 97.1668966,3.66923077 94.469646,3.66923077 C89.9013379,3.66923077 86.8742506,7.28307692 86.8742506,12.2113846 C86.8742506,16.7561538 89.7361908,20.4249231 94.8552943,20.4249231 C97.2762322,20.4249231 99.4780414,19.3846154 101.01972,17.5772308 L101.01972,6.79015385 L101.01972,6.79015385 Z" id="Fill-6"></path>
                <path d="M113.680237,7.776 L113.680237,23.4909231 L109.331972,23.4909231 L109.331972,0.493384615 L113.459736,0.493384615 L113.459736,4.32646154 C115.661087,1.47876923 118.689547,0.0553846154 121.71572,0.0553846154 L121.71572,4.27153846 C118.35788,4.27153846 115.275897,5.47615385 113.680237,7.776" id="Fill-7"></path>
                <path d="M143.731524,13.3066154 L126.779926,13.3066154 C127.273995,17.2486154 129.47672,20.2056923 135.420644,20.2056923 C137.347513,20.2056923 139.659115,19.6578462 141.80557,18.9461538 L142.576409,22.6149231 C139.933598,23.3815385 137.181908,23.9293846 135.036368,23.9293846 C126.72503,23.9293846 122.541455,18.7269231 122.541455,12.1015385 C122.541455,5.80430769 126.614322,0.0553846154 133.770087,0.0553846154 C140.318789,0.0553846154 143.897586,4.87384615 143.897586,11.1161538 C143.897586,11.8827692 143.897586,12.4850769 143.731524,13.3066154 L143.731524,13.3066154 Z M139.879616,10.0209231 C139.604218,6.46153846 137.567099,3.66923077 133.49469,3.66923077 C129.751202,3.66923077 127.440057,6.07846154 126.944616,10.0209231 L139.879616,10.0209231 L139.879616,10.0209231 Z" id="Fill-8"></path>
                <path d="M168.006322,13.3066154 L151.053352,13.3066154 C151.548793,17.2486154 153.750602,20.2056923 159.695441,20.2056923 C161.621395,20.2056923 163.93254,19.6578462 166.080368,18.9461538 L166.850292,22.6149231 C164.208395,23.3815385 161.456706,23.9293846 159.309793,23.9293846 C150.999828,23.9293846 146.816253,18.7269231 146.816253,12.1015385 C146.816253,5.80430769 150.88912,0.0553846154 158.044885,0.0553846154 C164.593586,0.0553846154 168.171011,4.87384615 168.171011,11.1161538 C168.171011,11.8827692 168.171011,12.4850769 168.006322,13.3066154 L168.006322,13.3066154 Z M164.153499,10.0209231 C163.877644,6.46153846 161.840524,3.66923077 157.768115,3.66923077 C154.026,3.66923077 151.713483,6.07846154 151.218041,10.0209231 L164.153499,10.0209231 L164.153499,10.0209231 Z" id="Fill-9"></path>
                <path d="M186.941057,23.4909231 L186.941057,9.03507692 C186.941057,5.47615385 185.620338,3.66923077 182.263414,3.66923077 C179.675499,3.66923077 176.978706,5.47615385 175.218356,7.39246154 L175.218356,23.4909231 L170.869177,23.4909231 L170.869177,0.493384615 L174.997855,0.493384615 L174.997855,3.99738462 C177.418793,1.58861538 180.446338,0.0553846154 183.528322,0.0553846154 C188.868384,0.0553846154 191.289322,3.28569231 191.289322,7.88538462 L191.289322,23.4909231 L186.941057,23.4909231" id="Fill-10"></path>
                <path d="M195.559816,21.3581538 L195.559816,20.9778462 L193.540995,20.9778462 L193.540995,21.3581538 L194.330133,21.3581538 L194.330133,23.4909231 L194.759241,23.4909231 L194.759241,21.3581538 L195.559816,21.3581538 L195.559816,21.3581538 Z M198.599713,23.4909231 L198.495409,20.9432308 L198.43731,20.9432308 L197.335262,22.5918462 L196.22132,20.9432308 L196.163221,20.9432308 L196.058917,23.4909231 L196.476589,23.4909231 L196.488025,21.9346154 L197.311931,23.1683077 L197.358136,23.1683077 L198.170605,21.9346154 L198.193478,23.4909231 L198.599713,23.4909231 L198.599713,23.4909231 Z" id="Fill-11"></path>
            </g>
        </g>
    </g>
</svg>